---
http_interactions:
- request:
    method: get
    uri: https://api.flickr.com/services/rest/?accuracy=11&api_key=FLIKR-API-KEY&content_type=1&extras=url_l&format=json&lat=37.8267&lon=-122.4233&media=photos&method=flickr.photos.search&nojsoncallback=1&page=1&per_page=1&safe_search=1&tags=snow,clouds,sun,lake,nature,winter,trees
    body:
      encoding: US-ASCII
      string: ''
    headers:
      User-Agent:
      - Faraday v0.15.4
      Accept-Encoding:
      - gzip;q=1.0,deflate;q=0.6,identity;q=0.3
      Accept:
      - "*/*"
  response:
    status:
      code: 200
      message: OK
    headers:
      Content-Type:
      - application/json
      Content-Length:
      - '351'
      Connection:
      - keep-alive
      Date:
      - Wed, 31 Jul 2019 15:49:12 GMT
      Server:
      - Apache/2.4.39 (Ubuntu)
      X-Content-Type-Options:
      - nosniff
      X-Frame-Options:
      - SAMEORIGIN
      X-Cache:
      - Miss from cloudfront
      Via:
      - 1.1 969f35f01b6eddd92239a3e818fc1e0d.cloudfront.net (CloudFront)
      X-Amz-Cf-Pop:
      - DEN50-C1
      X-Amz-Cf-Id:
      - 0hPfTQvEugdpneBJLd8WqqwXr9oO2w_kX4RrmIbD6g8erNDhw2ytZg==
    body:
      encoding: UTF-8
      string: '{"photos":{"page":1,"pages":26990,"perpage":1,"total":"26990","photo":[{"id":"48419726941","owner":"160768218@N08","secret":"1ee59aedab","server":"65535","farm":66,"title":"Blue
        life","ispublic":1,"isfriend":0,"isfamily":0,"url_l":"https:\/\/live.staticflickr.com\/65535\/48419726941_1ee59aedab_b.jpg","height_l":"1024","width_l":"683"}]},"stat":"ok"}'
    http_version: 
  recorded_at: Wed, 31 Jul 2019 15:49:12 GMT
recorded_with: VCR 5.0.0
